{
  "__type__": "cc.AnimationClip",
  "_name": "Student Idle",
  "_objFlags": 0,
  "_native": "",
  "_duration": 0,
  "sample": 60,
  "speed": 1,
  "wrapMode": 1,
  "curveData": {
    "props": {
      "color": [
        {
          "frame": 0,
          "value": {
            "__type__": "cc.Color",
            "r": 169,
            "g": 248,
            "b": 255,
            "a": 255
          }
        }
      ]
    }
  },
  "events": []
}